Assignment 05
…
## Formatting date variable, filtering out NAs, and only including homicides
crimes_lim <- crimes %>%
  mutate(date = as_date(mdy_hms(date, tz= "America/Chicago"))) %>%
  filter(primary_type == "HOMICIDE", 
         !is.na(longitude), 
         !is.na(latitude),
         !is.na(date),
         date  >= today() - years(10) ## Past 10 Years, should update
)

## Showing the lower_case and removed spaces
crimes_lim

# A tibble: 5,725 × 10
         id date       primary_…¹ arrest x_coo…² y_coo…³ commu…⁴ latit…⁵ longi…⁶
      <dbl> <date>     <chr>      <lgl>    <dbl>   <dbl>   <dbl> <chr>   <chr>  
 1 10156667 2015-07-18 HOMICIDE   TRUE   1175712 1902172      32 41.886… -87.63…
 2 10164471 2015-07-23 HOMICIDE   TRUE   1138403 1922795      15 41.944… -87.76…
 3    22032 2015-08-15 HOMICIDE   TRUE   1152321 1902190      27 41.887… -87.71…
 4 10222837 2015-09-03 HOMICIDE   TRUE   1168593 1938326      77 41.986… -87.65…
 5 10372192 2015-12-12 HOMICIDE   TRUE   1170546 1857571      68 41.764… -87.65…
 6 11823422 2019-08-10 HOMICIDE   TRUE   1180077 1864658      42 41.783… -87.61…
 7    24568 2019-05-29 HOMICIDE   FALSE  1179224 1829773      49 41.688… -87.61…
 8 10569766 2016-06-21 HOMICIDE   TRUE   1177193 1877179      38 41.818… -87.62…
 9 10586888 2016-07-05 HOMICIDE   TRUE   1158439 1875197      58 41.813… -87.69…
10    25665 2020-12-11 HOMICIDE   TRUE   1178967 1868946      40 41.795… -87.61…
# … with 5,715 more rows, 1 more variable: location <chr>, and abbreviated
#   variable names ¹​primary_type, ²​x_coordinate, ³​y_coordinate,
#   ⁴​community_area, ⁵​latitude, ⁶​longitude
# ℹ Use `print(n = ...)` to see more rows, and `colnames()` to see all variable names
…
